%YAML 1.1
%TAG !u! tag:unity3d.com,2011:
--- !u!1045 &1
EditorBuildSettings:
  m_ObjectHideFlags: 0
  serializedVersion: 2
  m_Scenes:
  - enabled: 0
    path: Assets/Scenes/SampleScene.unity
    guid: 2cda990e2423bbf4892e6590ba056729
  m_configObjects:
    com.unity.adaptiveperformance.loader_settings: {fileID: 11400000, guid: 269b71fb29502594cb306f5e808aff51, type: 2}
    com.unity.adaptiveperformance.simulator.provider_settings: {fileID: 11400000, guid: 5306a7d34c66b0a4494f5dc88ba03908, type: 2}
